package com.massmutual.rules.parttwo.risk_groups.personal_information;

import com.massmutual.domain.PartTwoRiskRating;
import com.massmutual.domain.PartTwoRiskType;
import com.massmutual.domain.parttwo.PersonalInformation;
import com.massmutual.domain.parttwo.MedicalCondition;
import com.massmutual.domain.parttwo.PhysicianVisitType;
import com.massmutual.domain.parttwo.WeightChangeType;
import function com.massmutual.domain.parttwo.MedicalConditionUtil.calculateBMI; 
import function com.massmutual.domain.parttwo.MedicalConditionUtil.calculateBMIWeightLost;
import java.util.ArrayList;

dialect "mvel"
agenda-group "calculate-risk-rating"

rule "PersonalInformation- Physician Visit Routine"

when
	PersonalInformation( $conditions: conditions )
	MedicalCondition( name == "phyReasonLastSeen", found == PhysicianVisitType.ROUTINE.name() ) from $conditions
then

PartTwoRiskRating $risk = new PartTwoRiskRating();
$risk.setRuleName( "PI_1_PV_Routine" );
$risk.setDescription( "Reason Last Seen?" );
$risk.setPartTwoRiskType( PartTwoRiskType.PERSONAL_INFORMATION);
$risk.setUPNT( 1 );
$risk.setSPNT( 1 );
$risk.setNONT( 1 );
$risk.setSPT( 1 );
$risk.setTOB( 1 );
$risk.setWP( 1 );
$risk.setDIIO( 1 );
insert( $risk );
end

rule "PersonalInformation- Physician Visit Acute"

when
	PersonalInformation( $conditions: conditions )
	MedicalCondition( name == "phyReasonLastSeen", found == PhysicianVisitType.ACUTE.name() ) from $conditions
then

PartTwoRiskRating $risk = new PartTwoRiskRating();
$risk.setRuleName( "PI_1_PV_Acute" );
$risk.setDescription( "Reason Last Seen?" );
$risk.setPartTwoRiskType( PartTwoRiskType.PERSONAL_INFORMATION);
$risk.setUPNT( 1 );
$risk.setSPNT( 1 );
$risk.setNONT( 1 );
$risk.setSPT( 1 );
$risk.setTOB( 1 );
$risk.setWP( 1 );
$risk.setDIIO( 1 );
insert( $risk );
end

rule "PersonalInformation- Physician Visit Injury"

when
	PersonalInformation( $conditions: conditions )
	MedicalCondition( name == "phyReasonLastSeen", found == PhysicianVisitType.INJURY.name() ) from $conditions
then

PartTwoRiskRating $risk = new PartTwoRiskRating();
$risk.setRuleName( "PI_1_PV_Injury" );
$risk.setDescription( "Reason Last Seen?" );
$risk.setPartTwoRiskType( PartTwoRiskType.PERSONAL_INFORMATION);
$risk.setUPNT( 1 );
$risk.setSPNT( 1 );
$risk.setNONT( 1 );
$risk.setSPT( 1 );
$risk.setTOB( 1 );
$risk.setWP( 1 );
$risk.setDIIO( 2 );
insert( $risk );
end

rule "PersonalInformation- Physician Visit Other"

when
	PersonalInformation( $conditions: conditions )
	MedicalCondition( name == "phyReasonLastSeen", found == PhysicianVisitType.OTHER.name() ) from $conditions
	PersonalInformation( !hasUserEnteredValueAll("phyReasonLastSeen","ABDOMINAL HERNIA","ABRUPTION","ACHILLES TENDON REPAIR","ACHILLES TENDONITIS","ACID REFLUX","ACL RECONSTRUCTION","ACL REPAIR","ACL SURGERY","ACL TEAR",
                     "ACL TEAR (L)","ACL TEAR (R)","ACNE","ACNE ROSACEA","ACNE VULGARIS","ACUTE APPENDICITIS","ACUTE BLADDER INFECTION","ACUTE BLADDER INFECTIONS","ACUTE ECZEMA","ACUTE UTI",
                     "ACUTE UTIS","ADULT ACNE","ALLERGIC RHINITIS","ALLERGIES","ANAL FISSURE","ANNUAL CHECK UP","ANNUAL CHECK-UP","ANNUAL CHECKUP","ANNUAL EXAM","ANNUAL PHYSICAL","ANNUAL VISIT","APENDECTOMY","APENDEX","APENDICITIS","APPEDICITUS","APPENDECTOMY","APPENDICITIES","APPENDICITIS","APPENDICITIS SURGERY","APPENDIX","APPENDIX REMOVED","ATHLETE'S FOOT",
                     "ATOPIC DERMATITIS","BABY","BACK ACNE","BACK INJURY","BACK PAIN","BACK SPASMS","BACK SPRAIN","BACK STRAIN","BACTERIAL VAGINOSIS","BAKER'S CYST","BENIGN BREAST CYST",
                     "BENIGN BREAST CYSTS","BENIGN CYST","BENIGN FIBROADENOMA","BENIGN FIBROADENOMA OF THE BREAST","BENIGN MOLE","BENIGN MOLE REMOVAL","BENIGN NASAL CYST","BIRTH",
                     "BIRTH - CESAREAN SECTION","BIRTH CONTROL","BIRTH OF BABY","BIRTH OF CHILD","BIRTH OF CHILD - LABOR AND DELIVERY","BIRTH OF DAUGHTER","BIRTH OF SON","BIRTH-CSECTION",
                     "BIRTHED A CHILD","BLADDER INFECTION","BLADDER INFECTIONS","BLOATING","BONE MARROW DONOR","BREAST AUGMENTATION","BREAST CYST","BREAST CYSTS","BREAST REDUCTION SURGERY",
                     "BROKE CLAVICLE","BROKE MY ARM","BROKE THUMB","BROKEN ANKLE","BROKEN ARM","BROKEN BONE IN HAND","BROKEN CLAVICLE","BROKEN ELBOW","BROKEN FINGER","BROKEN FOOT","BROKEN HAND",
                     "BROKEN HUMERUS","BROKEN LEG","BROKEN SHOULDER","BROKEN TOE","BROKEN WRIST","BRONCHITIS","BULGING DISC","BULGING DISC IN BACK","BULGING DISC IN NECK","BULGING DISK","BUNION",
                     "BUNION SURGERY","BUNIONETTE","BUNIONS","BURSA ON THE ANKLE","BURSITIS","BURSITIS OF ELBOW","BURSITIS OF HIP","BURSITIS OF KNEE","BURSITIS OF SHOULDER","BURSITIS OF THE ELBOW",
                     "BURSITIS OF THE HIP","BURSITIS OF THE KNEE","BURSITIS OF THE SHOULDER","C SECTION","C SECTION TO GIVE BIRTH","C-SECTION","C-SECTION BIRTH OF CHILD","C-SECTION DELIVERY",
                     "C-SECTION FOR BREECH BABY","C-SECTION PREGNANCY","C/SECTION","CARPAL TUNNEL","CARPAL TUNNEL SURGERY","CARPAL TUNNEL SYNDROME","CESAREAN","CESAREAN BIRTH","CESAREAN SECTION",
                     "CESARIAN CHILD BIRTH","CESARIAN SECTION FOR PREGNANCY","CESEREAN","CHECK UP","CHECK-UP","CHECKUP","CHILD BIRTH","CHILD BIRTH (C-SECTION)","CHILD BIRTH VIA C-SECTION",
                     "CHILD BIRTH- CSECTION","CHILD BIRTH-CSECTION","CHILD DELIVERY","CHILDBIRTH","CHILDBIRTH - C SECTION","CHILDBIRTH-CSECTION","CHIN LACERATION","CHOLE","CHOLECYSTECTOMY",
                     "CHOLESTASIS","CHONDROMALACEA","CHONDROMALACEA OF THE KNEE","CHONDROMALACEA PATELLA","CHONDROMALACIA","CHONDROMALACIA OF THE KNEE","CHONDROMALACIA PATELLA","CHRONIC HIVES",
                     "CHRONIC URTICARIA","CIRCUMCISION","CIRCUMSTION","COLD","COMMON COLD","CONDROMALACIA OF KNEE","CONSTIPATION","COUGH","CS FOR PREGNANCY","CSECTION","CUBITAL TUNNEL",
                     "CUBITAL TUNNEL SYNDROME","CYST","CYSTIC ACNE","CYSTS","D & C","D&C","D&E","DANDRUFF","DEGENEARTIVE DISC DISEASE","DEGENERATE DISC","DEGENERATE DISC DISEASE","DEGENERATE DISK",
                     "DEGENERATE DISK DISEASE","DEGENERATIVE DISC","DEGENERATIVE DISK","DEGENERATIVE DISK DISEASE","DELIVERY","DELIVERY, C-SECTION","DEQUERVAIN'S","DEQUERVAIN'S TENOSYNOVITIS",
                     "DERMATITIS","DERMATITOUS","DERMATITS","DEVIATED NASAL SEPTUM","DEVIATED SEPTUM","DISC HERNATION","DISC HERNIATIONS","DISCECTOMY ON L5","DISHYDROSIS","DISHYDROTIC ECZEMA",
                     "DISHYDROTIC EXEMA","DISHYDROTIC EXZEMA","DISK HERNATION","DISK HERNATIONS","DIVATED SEPTUM","DOT CHECK","DOT CHECK UP","DOT CHECK-UP","DOT CHECKUP","DOT PHYSICAL","DRY SKIN",
                     "DUST MITE ALLERGIES","DUST MITE ALLERGY","DYSHYDROSIS","DYSHYDROTIC ECZEMA","DYSHYDROTIC EXZEMA","DYSHYDRTOIC EXEMA","EAR INFECTION","ECTOPIC PREGNANCY","ECZEMA","ECZZEMA",
                     "ELBOW BURSITIS","ELBOW SURGERY","ELBOW TENDONITIS","ELECTIVE COSMETIC SURGERY","EMERGENCY C-SECTION","ENDOMETRIOSIS","ENDOMETRITIS","ENLARGED TONSILS","ENVIRONMENTAL ALLERGIES",
                     "EPIDERMAL INCLUSION CYST","EPIDIDIMITIS","EPIDIDYMITIS","EPIDYDYMITIS","ESTABLISH CARE","ESTABLISH NEW DOCTOR","ESTABLISH PRIMARY CARE","EXCEMA","EXEMA","EXZEMA","EZCEMA",
                     "FACIAL ACNE","FACIAL ECZEMA","FACIAL EXCEMA","FACIAL EXEMA","FAILURE TO PROGRESS","FEMUR FRACTURE","FETAL MONITORING","FIBROADENOMA","FIBROADENOMA OF THE BREAST","FIBROID",
                     "FIBROIDS","FISSURE","FISSURES","FLEXURAL ECZEMA","FLEXURAL EXEMA","FLEXURAL EXZEMA","FLU","FLU SHOT","FOOD ALLERGY","FRACTURED LEFT WRIST","FRACTURED RIGHT CLAVICLE","FUNIONS",
                     "FYBROIDS","GALL BLADDER REMOVAL","GALL BLADER ROMOVED","GALL STONES","GALLBLADDER","GALLBLADDER REMOVAL","GALLBLADDER REMOVED","GALLBLADDER SURGERY","GALLSTONES"))
    PersonalInformation( !hasUserEnteredValueAll("phyReasonLastSeen","GALLSTONES, REMOVED","GAMEKEEPER'S THUMB","GANGLION CYST","GAVE BIRTH","GERD","GILBERT SYNDROME","GILBERT'S SYNDROME","GLUTEN INTOLERANCE","GLUTEN SENSITIVITY","GOLFER'S ELBOW",
                     "GOUT","H. PYLORI","HAD A BABY","HAD A CHILD","HAD A NATURAL CHILD BIRTH","HAMMER TOE","HAMSTRING SPRAIN","HAMSTRING STRAIN","HAMSTRING TEAR","HAND ECZEMA","HAND EXEMA","HAND EXZEMA",
                     "HAND SURGERY","HASHIMOTO DISEASE","HASHIMOTO'S","HASHIMOTO'S DISEASE","HASHIMOTO'S THYRODITIS","HASHIMOTO'S THYROIDITIS","HASHIMOTOS","HASHIMOTOS DISEASE","HASHIMOTOS THYROIDITIS",
                     "HEART BURN","HEARTBURN","HEEL SPUR","HEEL SPURS","HEMEROIDS","HEMORRHOID","HEMORRHOID REMOVAL","HEMORRHOIDECTOMY","HERNIA","HERNIA REPAIR","HERNIA SURERY","HERNIA SURGERY",
                     "HERNIATED DISC","HERNIATED DISCS","HERNIATED DISK","HERNIATED DISK IN NECK","HERNIATED DISKS","HERPES","HERPES SIMPLEX","HIATAL HERNIA","HIGH RISK PREGNANCY","HIP BURSITIS",
                     "HIRADENITIS","HIRADENITIS SUPPURATIVA","HIVES","HPILORI","HPV","HPYLORI","HSV-1","HSV-2","HURNIA","HYDROCELE","HYPERAMASIS GRAVEDIRIUM","HYPEREMESIS","HYPEREMESIS GRAVIDARUM",
                     "HYPERHYDROSIS","HYPOTHYROID","HYPOTHYROID","HYPOTHYROIDISM","IBS","IMMUNIZATION","IMMUNIZATIONS","IMPINGEMENT","IMPINGEMENT SYNDROME","INCOMPETENT CERVIX","INCOMPITENT CERVIX",
                     "INCOMPITIENT CERVIX","INCOMPITINT CERVIX","INDUCTION","INFECTED BLADDER","INFERTILITY","INFLUENZA","INGUINAL HERNIA","INGUINAL HURNIA SURGERY","INSOMNIA","IRRETABILE BOWEL SYNDROME",
                     "IRRITABLE BOWEL SYNDROME","IUD REMOVAL","IVF","JOCK ITCH","KERATOSIS","KNEE AURGERY","KNEE BURSITIS","KNEE INJURY","KNEE SCOPE","KNEE SURGERY","LABOR & DELIVERY VIA C-SECTION",
                     "LABOR AND DELIVERY","LABOR AND DELIVERY (PREGNANCY)","LABRAL TEAR IN THE LEFT HIP","LABRAL TEAR, LEFT HIP","LABRAL TEAR, RIGHT HIP","LAP CHOLE","LAP CHOLY","LARGE FIBROIDS",
                     "LARGE UTERINE FIBROIDS","LASEK EYE SURGERY","LASIK EYE SURGERY","LASIK SURGERY","LEFT HIP IMPINGEMENT","LEFT SHOULDER ARTHROSCOPY","LOW AMNIOTIC FLUID","LOW BACK PAIN",
                     "LOW BACK SPRAIN","LOW BACK STRAIN","LOWER BACK PAIN","LUMBAR BACK PAIN","LUMBAR PAIN","LUMBAR SPRAIN","LUMBAR STRAIN","MASTITIS","MATERNITY","MEDICATION","MENISCAL REPAIR",
                     "MENISCAL TEAR","MENISCUS REPAIR","MENISCUS SURGERY (RIGHT KNEE)","MENISCUS TEAR","MENOMETRORRHAGIA","MENORRHAGIA","METRORRHAGIA","MICRODISCECTOMY","MILD ECZEMA","MILD EXEMA",
                     "MILD EXZEMA","MILD SEASONAL ALLERGIES","MISCARRIAGE","MISCARRIAGES","MOLE","MONO","MORNING SICKNESS","MORTON'S NEUROMA","NASAL ALLERGIES","NASAL POLYPS","NEW DOCTOR VISIT",
                     "NEW PATIENT","NEW PATIENT EXAM","NEW PATIENT EXAMINATION","NEW PATIENT VISIT","NODULAR PRURIGO","NONE","NORMAL CHILD BIRTH","NORMAL DELIVERY OF CHILD","NORMAL FULL TERM C-SECTIOM",
                     "NORMAL FULL TERM C-SECTIONS","NORMAL VAGINAL BIRTH","NORMAL VAGINAL DELIVERY","NOROVIRUS","NUT ALLERGY","OLIGOHYDRAMNIOS","OSGOOD SCHLATTER","OSGOOD SCHLATTER DISEASE",
                     "OSGOOD-SCHLATTER","OSGOOD-SCHLATTER DISEASE","OVER ACTIVE BLADDER","OVERACTIVE BLADDER","PARTIAL MENISECTOMY","PCOS","PERENNIAL ALLERGIC RHINITIS","PERFORATED APPENDICITIS","PHYSICAL",
                     "PILONIDAL CYST","PILONIDAL CYST REMOVAL","PILONIDAL CYST SURGERY","PINCHED NERVE","PLACENTA PREVERA","PLACENTA PREVIA","PLACENTAL ABRUPTION","PLANNED CESARIAN","PLANTAR FASCIITIS",
                     "PLANTAR FASCITIS","PLASTIC SURGERY","POISON IVY","POLYCYSTIC OVARIAN SYNDROME","POLYHYDRAMNIOS","POST DATE PREGNANCY","POST NATAL CHECK","POST NATAL CHECK UP","POST NATAL CHECKUP",
                     "POST NTAL CHECK-UP","POST-NATAL CHECK","POST-NATAL CHECK UP","POST-NATAL CHECK-UP","POST-NATAL CHECKUP","POST-PARTUM CHECK UP","POST-PARTUM CHECK-UP","POST-PARTUM CHECKUP",
                     "POST-PARTUM VISIT","POSTNATAL CHECK","POSTNATAL CHECK UP","POSTNATAL CHECK-UP","POSTNATAL CHECKUP","POSTPARTUM CHECK UP","POSTPARTUM CHECK-UP","POSTPARTUM CHECKUP","POSTPARTUM VISIT",
                     "PRE NATAL APPOINTMENT","PRE-NATAL APPOINTMENT","PRE-NATAL CARE","PREGNANCY","PREGNANCY (BIRTH)","PREGNANCY - C SECTION","PREGNANCY - C-SECTION","PREGNANCY - CESAREAN SECTION",
                     "PREGNANCY - DELIVERY","PREGNANCY - EXPECTED DELIVERY","PREGNANCY -- CESAREAN SECTION","PREGNANCY AND CESAREAN-SECTION","PREGNANCY APPOINTMENT","PREGNANCY C-SECTION","PREGNANCY CARE",
                     "PREGNANCY CHECK UP","PREGNANCY CHECK-UP","PREGNANCY CHECKUP","PREGNANCY LABOR","PREGNANCY ROUTINE DELIVERY","PREGNANCY TEST","PREGNANCY, C-SECTION","PREGNANCY- C SECTION",
                     "PREGNANCY- C-SECTION","PREGNANCY- LABOR / DELIVERY","PREGNANCY- VAGINAL DELIVERY","PREGNANCY--CESARIAN DELIVERY","PREGNANCY/ C-SECTION","PREGNANCY/C-SECTION","PREGNANCY/CESAREAN",
                     "PREGNANCY/CHILD BIRTH","PREGNANT","PREGNANT C-SECTION","PREGNANT- C- SECTION","PRENANCY","PRENATAL","PRENATAL APPOINTMENT","PRENATAL CARE","PRENATAL CHECK UP","PRENATAL CHECK-UP"))
    PersonalInformation( !hasUserEnteredValueAll("phyReasonLastSeen","PRENATAL CHECKUP","PRENATAL VISIT","PRENTAL CARE","PRESCRIPTION REFILL","PRETERM LABOR","PRIMARY CESAREAN SECTION","PRURIGO","PRURIGO NODULARIS","PRURITIS","PUPP","PURITIS",
                     "PYLORIC STENOSIS","RASH","REFLUX","REGULAR CHECK UP","REGULAR CHECK-UP","REGULAR CHECKUP","REMOVAL OF FIBROIDS","REPAIR A DEVIATED SEPTUM","REYNAUD'S","REYNAUD'S CONDITION",
                     "REYNAUD'S PHENOMENON","REYNAUDS","RHINOPLASTY","RIGHT ACL REPAIR","RIGHT ANKLE SURGERY","RIGHT ARM BONE FRACTURED","RIGHT FOOT BUNION","RIGHT INGUINAL HERNIA","RIGHT MENISCUS REPAIR",
                     "RING WORM","ROSACEA","ROTATOR CUFF","ROTATOR CUFF PAIN","ROTATOR CUFF REPAIR","ROTATOR CUFF REPRAIR","ROTATOR CUFF TEAR","ROUTINE","ROUTINE ANNUAL CHECK UP","ROUTINE ANNUAL CHECK-UP",
                     "ROUTINE ANNUAL CHECKUP","ROUTINE ANNUAL EXAM","ROUTINE ANNUAL PHYSICAL","ROUTINE ANNUAL VISIT","ROUTINE CHECK UP","ROUTINE CHECK-UP","ROUTINE CHECKUP","ROUTINE CHILD BIRTH",
                     "ROUTINE IMMUNIZATION","ROUTINE IMMUNIZATIONS","ROUTINE PHYSICAL","ROUTINE PRE-NATAL CARE","ROUTINE PRENATAL CARE","ROUTINE WISDOM TEETH REMOVAL","ROUTINE YEARLY PHYSICAL",
                     "ROUTINE YEARLY VISIT","RUPTURED ACHILLES","RUPTURED ACHILLES TENDON","RUPTURED DISK","SACROILIAC PAIN","SAME DAY SURGERY TO CORRECT A DEVIATED SEPTUM","SCIATICA",
                     "SEASONAL ALLERGIC RHINITIS","SEASONAL ALLERGIES","SEBACEOUS CYST","SEBASEOUS CYST","SEBHORIC DERMATITIS","SEBORRHEIC DERMATITIS","SHIN SPLINT","SHIN SPLINTS","SHINGLES","SHOULDER BURSITIS",
                     "SHOULDER IMPINGEMENT","SHOULDER LABRUM SURGERY","SHOULDER SURGERY","SI JOINT PAIN","SINUS SURGERY","SINUSITIS","SINUSITUS","SKIN ACNE","SKIN CYST","SKIN RASH","SLIPPED DISC","SLIPPED DISCS",
                     "SLIPPED DISK","SLIPPED DISKS","SOAR THROAT","SPINAL FUSION","SPONDILOLYSTHESIS","SPONDYLOLISTHESIS","STERILIZATION (BY PERSONAL CHOICE)","STITCH REMOVAL","STITCHES","STYE","SUTURE REMOVAL",
                     "TARSAL TUNNEL","TARSAL TUNNEL SYNDROME","TENDONITIS","TENDONITIS OF THE ELBOW","TENDONITIS OF THE WRIST","TENNIS ELBOW","TERM VAGINAL DELIVERY","THROAT INFECTION","THROMBOSED HEMORRHOID",
                     "TIBIAL TORSION","TINEA","TINEA CORPORIS","TINEA CRURIS","TINEA PEDIS","TINEA VERSICOLOR","TMJ","TONSILITIS","TONSILLECTOMY","TONSILLITIS","TONSILS AND ADENOIDS REMOVED","TONSILS REMOVED",
                     "TORN ACHILILES (LEFT)","TORN ACL","TORN ACL SURGERY","TORN ACL, MCL","TORN HAMSTRING","TORN LABRUM","TORN MENICSUS","TORN MENISCUS","TORN MINISCIOUS","TORN ROTATOR CUFF",
                     "TORN THUMB LIGAMENT","TRIGGER FINGER","TUBAL","TUBAL LIGATION","TUBAL PREGNANCY","TUBES TIED","TWIN PREGNANCY","TWINS","UMBILICAL HERNIA","UMBILICAL HERNIA REPAIR",
                     "UPPER RESPIRATORY INFECTION","URI","URINARY INFECTION","URINARY INFECTIONS","URINARY TRACT INFECTION","URINARY TRACT INFECTIONS","URTICARIA","UTERINE FIBROID","UTERINE FIBROIDS","UTERINE POLYP",
                     "UTI","UTIS","VAGINAL DELIVERY","VAGINAL YEAST INFECTION","VAGINITIS","VAGINOSIS","VARICOCELE SURGEY","VARICOELE","VASECTOMY","VASECTOMY REVERSAL","VASECTOMY REVERSAL- ELECTIVE","VASECTOMY- ELECTIVE",
                     "VESTIBULITUS","VITILIGO","VULVITIS","WELLNESS","WELLNESS CHECK","WELLNESS VISIT","WISDOM TEETH","WISDOM TEETH EXTRACTION","WISDOM TEETH IMPACTED","WISDOM TEETH REMOVAL","WISDOM TEETH REMOVED",
                     "WISDOM TEETH SURGERY","WRIST SURGERY","WRIST TENDONITIS","XEROSIS","XEROSIS CUTIS","YEARLY PHYSICAL","YEARLY VISIT","YEAST INFECTION") )
                     
then

PartTwoRiskRating $risk = new PartTwoRiskRating();
$risk.setRuleName( "PI_1_PV_Other" );
$risk.setDescription( "Reason Last Seen?" );
$risk.setPartTwoRiskType( PartTwoRiskType.PERSONAL_INFORMATION);
$risk.setUPNT( 2 );
$risk.setSPNT( 2 );
$risk.setNONT( 2 );
$risk.setSPT( 2 );
$risk.setTOB( 2 );
$risk.setWP( 2 );
$risk.setDIIO( 2 );
insert( $risk );
end

rule "PersonalInformation- Physician Visit Other 2"

when
	PersonalInformation( $conditions: conditions )
	MedicalCondition( name == "phyReasonLastSeen", found == PhysicianVisitType.OTHER.name() ) from $conditions

	PersonalInformation( hasUserEnteredValueAny("phyReasonLastSeen","ABRUPTION","ACHILLES TENDON REPAIR","ACHILLES TENDONITIS","ACL RECONSTRUCTION","ACL REPAIR","ACL SURGERY","ACL TEAR","ACL TEAR (L)","ACL TEAR (R)","BACK INJURY","BACK PAIN","BACK SPASMS","BACK SPRAIN","BACK STRAIN","BAKER'S CYST","BROKE CLAVICLE","BROKE MY ARM","BROKE THUMB","BROKEN ANKLE","BROKEN ARM","BROKEN BONE IN HAND","BROKEN CLAVICLE","BROKEN ELBOW","BROKEN FINGER","BROKEN FOOT","BROKEN HAND","BROKEN HUMERUS","BROKEN LEG","BROKEN SHOULDER","BROKEN WRIST","BULGING DISC","BULGING DISC IN BACK","BULGING DISC IN NECK","BULGING DISK","BUNION","BUNION SURGERY","BUNIONETTE","BUNIONS","BURSA ON THE ANKLE","BURSITIS","BURSITIS OF ELBOW","BURSITIS OF HIP","BURSITIS OF KNEE","BURSITIS OF SHOULDER","BURSITIS OF THE ELBOW","BURSITIS OF THE HIP","BURSITIS OF THE KNEE","BURSITIS OF THE SHOULDER","CARPAL TUNNEL","CARPAL TUNNEL SURGERY","CARPAL TUNNEL SYNDROME","CHONDROMALACEA","CHONDROMALACEA OF THE KNEE","CHONDROMALACEA PATELLA","CHONDROMALACIA","CHONDROMALACIA OF THE KNEE","CHONDROMALACIA PATELLA","CONDROMALACIA OF KNEE","CUBITAL TUNNEL","CUBITAL TUNNEL SYNDROME","DEGENEARTIVE DISC DISEASE","DEGENERATE DISC","DEGENERATE DISC DISEASE","DEGENERATE DISK","DEGENERATE DISK DISEASE","DEGENERATIVE DISC","DEGENERATIVE DISK","DEGENERATIVE DISK DISEASE","DEQUERVAIN'S","DEQUERVAIN'S TENOSYNOVITIS","DISC HERNATION","DISC HERNIATIONS","DISCECTOMY ON L5","DISK HERNATION","DISK HERNATIONS","ELBOW BURSITIS","ELBOW SURGERY","ELBOW TENDONITIS","FEMUR FRACTURE","FRACTURED LEFT WRIST","FRACTURED RIGHT CLAVICLE","FUNIONS","GAMEKEEPER'S THUMB","GOLFER'S ELBOW","GOUT","HAMMER TOE","HAMSTRING SPRAIN","HAMSTRING STRAIN","HAMSTRING TEAR","HAND SURGERY","HEEL SPUR","HEEL SPURS","HERNIATED DISC","HERNIATED DISCS","HERNIATED DISK","HERNIATED DISK IN NECK","HERNIATED DISKS","HIP BURSITIS","HYPERAMASIS GRAVEDIRIUM","HYPEREMESIS","HYPEREMESIS GRAVIDARUM","IMPINGEMENT","IMPINGEMENT SYNDROME","INCOMPETENT CERVIX","INCOMPITENT CERVIX","INCOMPITIENT CERVIX","INCOMPITINT CERVIX","INFERTILITY","IRRETABILE BOWEL SYNDROME","IRRITABLE BOWEL SYNDROME","IVF","KNEE AURGERY","KNEE BURSITIS","KNEE INJURY","KNEE SCOPE","KNEE SURGERY","LABRAL TEAR IN THE LEFT HIP","LABRAL TEAR, LEFT HIP","LABRAL TEAR, RIGHT HIP","LASIK SURGERY","LEFT HIP IMPINGEMENT","LEFT SHOULDER ARTHROSCOPY","LOW BACK PAIN","LOW BACK SPRAIN","LOW BACK STRAIN","LOWER BACK PAIN","LUMBAR BACK PAIN","LUMBAR PAIN","LUMBAR SPRAIN","LUMBAR STRAIN","MENISCAL REPAIR","MENISCAL TEAR","MENISCUS REPAIR","MENISCUS SURGERY (RIGHT KNEE)","MENISCUS TEAR","MICRODISCECTOMY","MORNING SICKNESS","MORTON'S NEUROMA","OSGOOD SCHLATTER","OSGOOD SCHLATTER DISEASE","OSGOOD-SCHLATTER","OSGOOD-SCHLATTER DISEASE","PARTIAL MENISECTOMY","PINCHED NERVE","PLACENTA PREVERA","PLACENTA PREVIA","PLACENTAL ABRUPTION","PLANTAR FASCIITIS","PLANTAR FASCITIS","PRETERM LABOR","REYNAUD'S","REYNAUD'S CONDITION","REYNAUD'S PHENOMENON","REYNAUDS","RIGHT ACL REPAIR","RIGHT ANKLE SURGERY","RIGHT ARM BONE FRACTURED","RIGHT FOOT BUNION","RIGHT MENISCUS REPAIR","ROTATOR CUFF","ROTATOR CUFF PAIN","ROTATOR CUFF REPAIR","ROTATOR CUFF REPRAIR","ROTATOR CUFF TEAR","RUPTURED ACHILLES","RUPTURED ACHILLES TENDON","RUPTURED DISK","SACROILIAC PAIN","SCIATICA","SHIN SPLINT","SHIN SPLINTS","SHINGLES","SHOULDER BURSITIS","SHOULDER IMPINGEMENT","SHOULDER LABRUM SURGERY","SHOULDER SURGERY","SI JOINT PAIN","SLIPPED DISC","SLIPPED DISCS","SLIPPED DISK","SLIPPED DISKS","SPINAL FUSION","SPONDILOLYSTHESIS","SPONDYLOLISTHESIS","TARSAL TUNNEL","TARSAL TUNNEL SYNDROME","TENDONITIS","TENDONITIS OF THE ELBOW","TENDONITIS OF THE WRIST","TENNIS ELBOW","TIBIAL TORSION","TMJ","TORN ACHILILES (LEFT)","TORN ACL","TORN ACL SURGERY","TORN ACL, MCL","TORN HAMSTRING","TORN LABRUM","TORN MENICSUS","TORN MENISCUS","TORN MINISCIOUS","TORN ROTATOR CUFF","TORN THUMB LIGAMENT","TRIGGER FINGER","WRIST SURGERY","WRIST TENDONITIS"))
then

PartTwoRiskRating $risk = new PartTwoRiskRating();
$risk.setRuleName( "PI_1_PV_Other" );
$risk.setDescription( "Reason Last Seen?" );
$risk.setPartTwoRiskType( PartTwoRiskType.PERSONAL_INFORMATION);
$risk.setUPNT( 1 );
$risk.setSPNT( 1 );
$risk.setNONT( 1 );
$risk.setSPT( 1 );
$risk.setTOB( 1 );
$risk.setWP( 2 );
$risk.setDIIO( 2 );
insert( $risk );
end

rule "PersonalInformation- Weight Loss - Weight Loss Surgery"

when
PersonalInformation(	
		weightLossReason == WeightChangeType.WEIGHT_LOSS_SURGERY.name(),
		weightChangePounds > 10)
then

PartTwoRiskRating $risk = new PartTwoRiskRating();
$risk.setRuleName( "PI_1_WL_WeightLossSurgery" );
$risk.setDescription( "What was the weight loss due to?" );
$risk.setPartTwoRiskType( PartTwoRiskType.PERSONAL_INFORMATION);
$risk.setUPNT( 2 );
$risk.setSPNT( 2 );
$risk.setNONT( 2 );
$risk.setSPT( 2 );
$risk.setTOB( 2 );
$risk.setWP( 2 );
$risk.setDIIO( 2 );
insert( $risk );
end

rule "PersonalInformation- Weight Loss - Other"

when
PersonalInformation(	
		weightLossReason == WeightChangeType.OTHER.name(),
		weightChangePounds > 10)
then

PartTwoRiskRating $risk = new PartTwoRiskRating();
$risk.setRuleName( "PI_1_WL_Other" );
$risk.setDescription( "What was the weight loss due to?" );
$risk.setPartTwoRiskType( PartTwoRiskType.PERSONAL_INFORMATION);
$risk.setUPNT( 2 );
$risk.setSPNT( 2 );
$risk.setNONT( 2 );
$risk.setSPT( 2 );
$risk.setTOB( 2 );
$risk.setWP( 2 );
$risk.setDIIO( 2 );
insert( $risk );
end

rule "PersonalInformation- Weight Gain - Other"

when
PersonalInformation(	
		weightGainReason== WeightChangeType.OTHER.name(),
		weightChangePounds > 10)
then

PartTwoRiskRating $risk = new PartTwoRiskRating();
$risk.setRuleName( "PI_1_WG_Other" );
$risk.setDescription( "What was the weight loss due to?" );
$risk.setPartTwoRiskType( PartTwoRiskType.PERSONAL_INFORMATION);
$risk.setUPNT( 2 );
$risk.setSPNT( 2 );
$risk.setNONT( 2 );
$risk.setSPT( 2 );
$risk.setTOB( 2 );
$risk.setWP( 2 );
$risk.setDIIO( 2 );
insert( $risk );
end

rule "PersonalInformation- BMI - Basic"

when
PersonalInformation( calculateBMI(heightFeet, heightInches, weightPounds) >= 34 )
then

PartTwoRiskRating $risk = new PartTwoRiskRating();
$risk.setRuleName( "PI_1_BMI_Basic" );
$risk.setDescription( "Current height and weight (calculate bmi)" );
$risk.setPartTwoRiskType( PartTwoRiskType.PERSONAL_INFORMATION);
$risk.setUPNT( 3 );
$risk.setSPNT( 3 );
$risk.setNONT( 2 );
$risk.setSPT( 3 );
$risk.setTOB( 2 );
$risk.setWP( 3 );
$risk.setDIIO( 1 );
insert( $risk );
end

rule "PersonalInformation- BMI - Weight Loss"

//Do no change the below, intentionally checking that weightLossReason is not null and then weightlossReason is not child_birth 
//as we need it equal to something (they had weightloss) , we don't re-evaluate their
//bmi for wieghtgain and we don't re-evaluate for weighloss due to child birth - only for other types of weightloss.

when
PersonalInformation(weightLossReason != null && weightLossReason != WeightChangeType.CHILD_BIRTH.name(), calculateBMIWeightLost(heightFeet, heightInches, weightPounds, weightChangePounds) >= 34 )
then

PartTwoRiskRating $risk = new PartTwoRiskRating();
$risk.setRuleName( "PI_1_BMI_WeightLoss" );
$risk.setDescription( "Current height and weight (calculate bmi with weight loss factored)" );
$risk.setPartTwoRiskType( PartTwoRiskType.PERSONAL_INFORMATION);
$risk.setUPNT( 2 );
$risk.setSPNT( 2 );
$risk.setNONT( 2 );
$risk.setSPT( 2 );
$risk.setTOB( 2 );
$risk.setWP( 2 );
$risk.setDIIO( 2 );
insert( $risk );
end