package com.massmutual.rules.verification.parttwo.risk_groups.rx;

import com.massmutual.domain.parttwo.CMIInformation;
import com.massmutual.domain.parttwo.OtherDisorder;
import com.massmutual.domain.verification.RxReturnOtherData;
import com.massmutual.domain.verification.VerificationRiskRating;

dialect "mvel"
rule "1"
	agenda-group "risk_verification"
	when
		OtherDisorder( conditionsFound contains "hadRXOther" )
		$c : CMIInformation(cmiSignatureDate != null)
		RxReturnOtherData(rxLastFillDate != null, eval(calculateDiffinDays($c.cmiSignatureDate) <= -335))	
	then
		VerificationRiskRating $risk = new VerificationRiskRating();
		$risk.setRuleName( "OtherRX_No_RX_Fill_Within_1_Year" );
		$risk.setDescription( "CMI indicates OtherRX but no RX fill within 1 Year of CMI" );
        $risk.setRiskType( "RX_PART_II" );
        $risk.setUPNT( 2 );
		$risk.setSPNT( 2 );
		$risk.setNONT( 2 );
		$risk.setSPT( 2 );
		$risk.setTOB( 2 );
		$risk.setWP( 2 );
		$risk.setDIIO( 2 );
		insert( $risk );
end;


rule "2"
	agenda-group "risk_verification"
	when
		OtherDisorder( conditionsFound contains "hadRXOther" )
		RxReturnOtherData(rxLastFillDate == null)	
	then
		VerificationRiskRating $risk = new VerificationRiskRating();
		$risk.setRuleName( "OtherRX_No_RX_Fill_Within_1_Year" );
		$risk.setDescription( "CMI indicates OtherRX but no RX fill within 1 Year of CMI" );
		$risk.setRiskType( "RX_PART_II" );
        $risk.setUPNT( 2 );
		$risk.setSPNT( 2 );
		$risk.setNONT( 2 );
		$risk.setSPT( 2 );
		$risk.setTOB( 2 );
		$risk.setWP( 2 );
		$risk.setDIIO( 2 );
		insert( $risk );
end;