package com.massmutual.rules.partone.rollup;

import com.massmutual.domain.PartOneRiskRating;
import com.massmutual.domain.RiskRatingRollup;
import com.massmutual.domain.RiskRatingSummary;
import com.massmutual.domain.PartOneRiskType;
import com.massmutual.domain.RiskSummaryType;

import java.util.ArrayList;

dialect "mvel"  

rule "Create new Part I RiskRatingSummary if not exist"                                                                                        
  	agenda-group "rollup-risk-rating-groups" 
	                                            	                                                  
when    	
	$groups : ArrayList(size > 0)
            		from collect(  RiskRatingRollup(riskSummaryType ==  RiskSummaryType.PART_I, riskType !=  null) )
	not RiskRatingSummary(riskSummaryType ==  RiskSummaryType.PART_I)
then         

	//System.out.println("******* Create  Part I RiskRatingSummary ****************");
	$summary = new RiskRatingSummary();
	$summary.setRiskRatingGroups($groups);
	$summary.setRiskSummaryType(RiskSummaryType.PART_I);
	$summary.setDescription(RiskSummaryType.PART_I + " rollup summary");
	insert($summary );
		
end;

rule "Rollup Successful Part I RiskRating Groups"                                                                                        
  	agenda-group "rollup-risk-rating-groups" 
	                                            	                                                  
when    
	$summary : RiskRatingSummary(riskSummaryType ==  RiskSummaryType.PART_I)
	accumulate(  RiskRatingRollup(riskSummaryType == $summary.riskSummaryType,
						 riskType !=  null, 
						 $upnt : UPNT, $spnt : SPNT, $nont : NONT ,
						 $spt : SPT, $tob : TOB, $wp : WP, $diio : DIIO);
                	     
			     $maxUPNT : max( $upnt ) , $minUPNT : min( $upnt ),
			     $maxSPNT : max( $spnt ),
			     $maxNONT : max( $nont ),
			     $maxSPT : max( $spt ),
			     $maxTOB : max( $tob ),
			     $maxWP : max( $wp ),
			     $maxDIIO : max( $diio ); 
			     $minUPNT > 0
	);
     
	
then   
	//System.out.println("******* Do  Part I Risk Rating Summary Rollup ****************");
	$summary.setUPNT($maxUPNT);
	$summary.setSPNT($maxSPNT);
	$summary.setNONT($maxNONT);
	$summary.setSPT($maxSPT);
	$summary.setTOB($maxTOB);
	$summary.setWP($maxWP);
	$summary.setDIIO($maxDIIO);
	$summary.setRollupComplete(true);
	
end;