package com.massmutual.rules.mib.rollup;

import com.massmutual.domain.mib.MIBRiskRating;
import java.util.ArrayList;

dialect "mvel"
agenda-group "rollup-risk-ratings" 


rule "mib-default if no MIBRiskRating were created"
	salience 10
when
	ArrayList( size == 0) 		
			from collect( MIBRiskRating(UPNT > 0 )  )
	
then
	//System.out.println("No MIBRiskRating so insert default for MIB");
	
	MIBRiskRating $rated = new MIBRiskRating();
        
	$rated.setUPNT(1);
	$rated.setSPNT(1);
	$rated.setNONT(1);
	$rated.setSPT(1);
	$rated.setTOB(1);
	$rated.setWP(1);
	$rated.setDIIO(1);

        $rated.setResponseData( "******(***)");
        insert( $rated );

end

rule "Create new MIB RiskRatingRollup if not exist"                                                                                        
	  salience -1                                          	                                                  
when    	
	$risk : MIBRiskRating()
	$ratings : ArrayList(size > 0)
            		from collect(  MIBRiskRating() )
	not RiskRatingRollup(riskSummaryType == RiskSummaryType.MIB)
then         

	//System.out.println("******* Create MIB  RiskRatingRollup ****************");
	RiskRatingRollup $rollup = new RiskRatingRollup();
	$rollup.setRiskSummaryType(RiskSummaryType.MIB);
	$rollup.setRiskRatings($ratings);
	$rollup.setRiskType($risk.riskType);
	$rollup.setDescription("MIB group rollup");
	insert($rollup );
		
end;


rule "Rollup Successful MIB RiskRatings"                                                                                        
	  salience -2                                          	                                                  
when    
	$rollup : RiskRatingRollup(riskSummaryType == RiskSummaryType.MIB)
	accumulate(  MIBRiskRating( $upnt : UPNT, $spnt : SPNT, $nont : NONT ,
						 $spt : SPT, $tob : TOB, $wp : WP, $diio : DIIO);
                	     
			     $maxUPNT : max( $upnt ) , $minUPNT : min( $upnt ),
			     $maxSPNT : max( $spnt ),
			     $maxNONT : max( $nont ),
			     $maxSPT : max( $spt ),
			     $maxTOB : max( $tob ),
			     $maxWP : max( $wp ),
			     $maxDIIO : max( $diio ); 
			     $minUPNT > 0
	);
     
	
then   
	//System.out.println("******* Do MIB Risk Rating Rollup ****************");

	$rollup.setUPNT($maxUPNT);
	$rollup.setSPNT($maxSPNT);
	$rollup.setNONT($maxNONT);
	$rollup.setSPT($maxSPT);
	$rollup.setTOB($maxTOB);
	$rollup.setWP($maxWP);
	$rollup.setDIIO($maxDIIO);
	$rollup.setRollupComplete(true);
end