package com.massmutual.rules.parttwo.risk_groups.nervous_system_disorders;

import com.massmutual.domain.PartTwoRiskRating;
import com.massmutual.domain.PartTwoRiskType;
import com.massmutual.domain.parttwo.NervousSystemDisorder;
import com.massmutual.domain.parttwo.MedicalCondition;
import java.util.ArrayList;

dialect "mvel"

rule "NervousSystemDisorder - medsDBSeizures"
agenda-group "calculate-risk-rating"

when
NervousSystemDisorder( $conditions: conditions )
MedicalCondition( name == "medsDBSeizures", found in ("More than one") ) from $conditions
then

PartTwoRiskRating $risk = new PartTwoRiskRating();
$risk.setRuleName( "NSD_4_NumOfMeds" );
$risk.setDescription( "How many medications are currently being prescribed by a medical professional for your seizures?" );
$risk.setPartTwoRiskType( PartTwoRiskType.NERVOUS_SYSTEM_DISORDER );
$risk.setUPNT( 3 );
$risk.setSPNT( 2 );
$risk.setNONT( 2 );
$risk.setSPT( 2 );
$risk.setTOB( 2 );
$risk.setWP( 2 );
$risk.setDIIO( 2 );
insert( $risk );
end