package com.massmutual.rules.parttwo.risk_groups.diabetes;

import com.massmutual.domain.PartTwoRiskRating;
import com.massmutual.domain.PartTwoRiskType;
import com.massmutual.domain.parttwo.Diabetes;
import com.massmutual.domain.parttwo.MedicalCondition;
import java.util.ArrayList;

dialect "mvel"  

//hasDTDType
rule "Diabetes - hasDTDType"
    agenda-group "calculate-risk-rating"
   
    when
        Diabetes( $conditions: conditions )
	MedicalCondition( name == "hasDTDType", found in ("Type 1", "Type 2", "Other", "Not Sure") ) from $conditions
    then

        PartTwoRiskRating $risk = new PartTwoRiskRating();
        $risk.setRuleName( "D_1_DiabetesType" );
        $risk.setDescription( "What type of diabetes do/did you have?" );
        $risk.setPartTwoRiskType( PartTwoRiskType.DIABETES );
        $risk.setUPNT( 2 );
        $risk.setSPNT( 2 );
        $risk.setNONT( 2 );
        $risk.setSPT( 2 );
        $risk.setTOB( 2 );
        $risk.setWP( 2 );
        $risk.setDIIO( 2 );
        insert( $risk );
end